  [1m[36m (1.7ms)[0m  [1mCREATE TABLE "schema_migrations" ("version" varchar(255) NOT NULL) [0m
  [1m[35m (2.0ms)[0m  CREATE UNIQUE INDEX "unique_schema_migrations" ON "schema_migrations" ("version")
  [1m[36mActiveRecord::SchemaMigration Load (0.2ms)[0m  [1mSELECT "schema_migrations".* FROM "schema_migrations"[0m
Migrating to CreatePosts (20140406175058)
  [1m[35m (0.1ms)[0m  begin transaction
  [1m[36m (0.6ms)[0m  [1mCREATE TABLE "posts" ("id" INTEGER PRIMARY KEY AUTOINCREMENT NOT NULL, "title" varchar(255), "body" text, "created_at" datetime, "updated_at" datetime) [0m
  [1m[35mSQL (0.3ms)[0m  INSERT INTO "schema_migrations" ("version") VALUES (?)  [["version", "20140406175058"]]
  [1m[36m (2.0ms)[0m  [1mcommit transaction[0m
Migrating to CreateComments (20140406175317)
  [1m[35m (0.1ms)[0m  begin transaction
  [1m[36m (0.5ms)[0m  [1mCREATE TABLE "comments" ("id" INTEGER PRIMARY KEY AUTOINCREMENT NOT NULL, "post_id" integer, "body" text, "created_at" datetime, "updated_at" datetime) [0m
  [1m[35mSQL (0.2ms)[0m  INSERT INTO "schema_migrations" ("version") VALUES (?)  [["version", "20140406175317"]]
  [1m[36m (1.6ms)[0m  [1mcommit transaction[0m
  [1m[35mActiveRecord::SchemaMigration Load (0.1ms)[0m  SELECT "schema_migrations".* FROM "schema_migrations"


Started GET "/" for 127.0.0.1 at 2014-04-06 11:12:55 -0700
  [1m[36mActiveRecord::SchemaMigration Load (0.2ms)[0m  [1mSELECT "schema_migrations".* FROM "schema_migrations"[0m
Processing by Rails::WelcomeController#index as HTML
  Rendered /Library/Ruby/Gems/2.0.0/gems/railties-4.0.4/lib/rails/templates/rails/welcome/index.html.erb (14.2ms)
Completed 200 OK in 100ms (Views: 57.0ms | ActiveRecord: 0.0ms)


Started GET "/post" for 127.0.0.1 at 2014-04-06 11:13:14 -0700

ActionController::RoutingError (No route matches [GET] "/post"):
  actionpack (4.0.4) lib/action_dispatch/middleware/debug_exceptions.rb:21:in `call'
  actionpack (4.0.4) lib/action_dispatch/middleware/show_exceptions.rb:30:in `call'
  railties (4.0.4) lib/rails/rack/logger.rb:38:in `call_app'
  railties (4.0.4) lib/rails/rack/logger.rb:20:in `block in call'
  activesupport (4.0.4) lib/active_support/tagged_logging.rb:68:in `block in tagged'
  activesupport (4.0.4) lib/active_support/tagged_logging.rb:26:in `tagged'
  activesupport (4.0.4) lib/active_support/tagged_logging.rb:68:in `tagged'
  railties (4.0.4) lib/rails/rack/logger.rb:20:in `call'
  actionpack (4.0.4) lib/action_dispatch/middleware/request_id.rb:21:in `call'
  rack (1.5.2) lib/rack/methodoverride.rb:21:in `call'
  rack (1.5.2) lib/rack/runtime.rb:17:in `call'
  activesupport (4.0.4) lib/active_support/cache/strategy/local_cache.rb:83:in `call'
  rack (1.5.2) lib/rack/lock.rb:17:in `call'
  actionpack (4.0.4) lib/action_dispatch/middleware/static.rb:64:in `call'
  rack (1.5.2) lib/rack/sendfile.rb:112:in `call'
  railties (4.0.4) lib/rails/engine.rb:511:in `call'
  railties (4.0.4) lib/rails/application.rb:97:in `call'
  rack (1.5.2) lib/rack/lock.rb:17:in `call'
  rack (1.5.2) lib/rack/content_length.rb:14:in `call'
  rack (1.5.2) lib/rack/handler/webrick.rb:60:in `service'
  /System/Library/Frameworks/Ruby.framework/Versions/2.0/usr/lib/ruby/2.0.0/webrick/httpserver.rb:138:in `service'
  /System/Library/Frameworks/Ruby.framework/Versions/2.0/usr/lib/ruby/2.0.0/webrick/httpserver.rb:94:in `run'
  /System/Library/Frameworks/Ruby.framework/Versions/2.0/usr/lib/ruby/2.0.0/webrick/server.rb:295:in `block in start_thread'


  Rendered /Library/Ruby/Gems/2.0.0/gems/actionpack-4.0.4/lib/action_dispatch/middleware/templates/rescues/_trace.erb (1.5ms)
  Rendered /Library/Ruby/Gems/2.0.0/gems/actionpack-4.0.4/lib/action_dispatch/middleware/templates/routes/_route.html.erb (2.8ms)
  Rendered /Library/Ruby/Gems/2.0.0/gems/actionpack-4.0.4/lib/action_dispatch/middleware/templates/routes/_table.html.erb (69.2ms)
  Rendered /Library/Ruby/Gems/2.0.0/gems/actionpack-4.0.4/lib/action_dispatch/middleware/templates/rescues/routing_error.erb within rescues/layout (180.0ms)


Started GET "/posts" for 127.0.0.1 at 2014-04-06 11:13:41 -0700
Processing by PostsController#index as HTML
  [1m[35mPost Load (0.3ms)[0m  SELECT "posts".* FROM "posts"
  Rendered posts/index.html.erb within layouts/application (3.3ms)
Completed 200 OK in 1406ms (Views: 1402.2ms | ActiveRecord: 0.3ms)


Started GET "/assets/posts.css?body=1" for 127.0.0.1 at 2014-04-06 11:13:43 -0700


Started GET "/assets/comments.css?body=1" for 127.0.0.1 at 2014-04-06 11:13:43 -0700


Started GET "/assets/scaffolds.css?body=1" for 127.0.0.1 at 2014-04-06 11:13:43 -0700


Started GET "/assets/jquery.js?body=1" for 127.0.0.1 at 2014-04-06 11:13:43 -0700


Started GET "/assets/jquery_ujs.js?body=1" for 127.0.0.1 at 2014-04-06 11:13:43 -0700


Started GET "/assets/application.js?body=1" for 127.0.0.1 at 2014-04-06 11:13:43 -0700


Started GET "/assets/comments.js?body=1" for 127.0.0.1 at 2014-04-06 11:13:43 -0700


Started GET "/assets/turbolinks.js?body=1" for 127.0.0.1 at 2014-04-06 11:13:43 -0700


Started GET "/assets/posts.js?body=1" for 127.0.0.1 at 2014-04-06 11:13:43 -0700


Started GET "/assets/application.css?body=1" for 127.0.0.1 at 2014-04-06 11:13:43 -0700


Started GET "/posts/new" for 127.0.0.1 at 2014-04-06 11:18:20 -0700
Processing by PostsController#new as HTML
  Rendered posts/_form.html.erb (128.0ms)
  Rendered posts/new.html.erb within layouts/application (131.8ms)
Completed 200 OK in 145ms (Views: 143.0ms | ActiveRecord: 0.5ms)


Started POST "/posts" for 127.0.0.1 at 2014-04-06 11:18:50 -0700
Processing by PostsController#create as HTML
  Parameters: {"utf8"=>"✓", "authenticity_token"=>"uihP4gRikfE5noskNr/jQgM71Tp+RAqYE/b1j3bMqKE=", "post"=>{"title"=>"My First Post", "body"=>"Life is great!"}, "commit"=>"Create Post"}
  [1m[36m (0.2ms)[0m  [1mbegin transaction[0m
  [1m[35mSQL (76.0ms)[0m  INSERT INTO "posts" ("body", "created_at", "title", "updated_at") VALUES (?, ?, ?, ?)  [["body", "Life is great!"], ["created_at", Sun, 06 Apr 2014 18:18:50 UTC +00:00], ["title", "My First Post"], ["updated_at", Sun, 06 Apr 2014 18:18:50 UTC +00:00]]
  [1m[36m (17.1ms)[0m  [1mcommit transaction[0m
Redirected to http://0.0.0.0:3000/posts/1
Completed 302 Found in 103ms (ActiveRecord: 93.2ms)


Started GET "/posts/1" for 127.0.0.1 at 2014-04-06 11:18:50 -0700
Processing by PostsController#show as HTML
  Parameters: {"id"=>"1"}
  [1m[35mPost Load (0.3ms)[0m  SELECT "posts".* FROM "posts" WHERE "posts"."id" = ? LIMIT 1  [["id", "1"]]
  Rendered posts/show.html.erb within layouts/application (1.6ms)
Completed 200 OK in 13ms (Views: 9.5ms | ActiveRecord: 0.3ms)


Started GET "/assets/posts.css?body=1" for 127.0.0.1 at 2014-04-06 11:18:50 -0700


Started GET "/assets/comments.js?body=1" for 127.0.0.1 at 2014-04-06 11:18:50 -0700


Started GET "/assets/application.css?body=1" for 127.0.0.1 at 2014-04-06 11:18:50 -0700


Started GET "/assets/comments.css?body=1" for 127.0.0.1 at 2014-04-06 11:18:50 -0700


Started GET "/assets/application.js?body=1" for 127.0.0.1 at 2014-04-06 11:18:50 -0700


Started GET "/assets/scaffolds.css?body=1" for 127.0.0.1 at 2014-04-06 11:18:50 -0700


Started GET "/assets/posts.js?body=1" for 127.0.0.1 at 2014-04-06 11:18:50 -0700


Started GET "/comments" for 127.0.0.1 at 2014-04-06 11:19:33 -0700
Processing by CommentsController#index as HTML
  [1m[36mComment Load (0.2ms)[0m  [1mSELECT "comments".* FROM "comments"[0m
  Rendered comments/index.html.erb within layouts/application (2.1ms)
Completed 200 OK in 367ms (Views: 9.3ms | ActiveRecord: 0.2ms)


Started GET "/assets/application.css?body=1" for 127.0.0.1 at 2014-04-06 11:19:33 -0700


Started GET "/assets/comments.js?body=1" for 127.0.0.1 at 2014-04-06 11:19:33 -0700


Started GET "/assets/posts.css?body=1" for 127.0.0.1 at 2014-04-06 11:19:33 -0700


Started GET "/assets/comments.css?body=1" for 127.0.0.1 at 2014-04-06 11:19:33 -0700


Started GET "/assets/posts.js?body=1" for 127.0.0.1 at 2014-04-06 11:19:33 -0700


Started GET "/assets/scaffolds.css?body=1" for 127.0.0.1 at 2014-04-06 11:19:33 -0700


Started GET "/assets/application.js?body=1" for 127.0.0.1 at 2014-04-06 11:19:33 -0700


Started GET "/comments/new" for 127.0.0.1 at 2014-04-06 11:19:53 -0700
Processing by CommentsController#new as HTML
  Rendered comments/_form.html.erb (63.7ms)
  Rendered comments/new.html.erb within layouts/application (66.4ms)
Completed 200 OK in 76ms (Views: 73.9ms | ActiveRecord: 0.4ms)


Started POST "/comments" for 127.0.0.1 at 2014-04-06 11:20:02 -0700
Processing by CommentsController#create as HTML
  Parameters: {"utf8"=>"✓", "authenticity_token"=>"uihP4gRikfE5noskNr/jQgM71Tp+RAqYE/b1j3bMqKE=", "comment"=>{"post_id"=>"1", "body"=>"Great post!"}, "commit"=>"Create Comment"}
  [1m[35m (0.1ms)[0m  begin transaction
  [1m[36mSQL (0.7ms)[0m  [1mINSERT INTO "comments" ("body", "created_at", "post_id", "updated_at") VALUES (?, ?, ?, ?)[0m  [["body", "Great post!"], ["created_at", Sun, 06 Apr 2014 18:20:02 UTC +00:00], ["post_id", 1], ["updated_at", Sun, 06 Apr 2014 18:20:02 UTC +00:00]]
  [1m[35m (1.8ms)[0m  commit transaction
Redirected to http://0.0.0.0:3000/comments/1
Completed 302 Found in 8ms (ActiveRecord: 2.6ms)


Started GET "/comments/1" for 127.0.0.1 at 2014-04-06 11:20:02 -0700
Processing by CommentsController#show as HTML
  Parameters: {"id"=>"1"}
  [1m[36mComment Load (0.3ms)[0m  [1mSELECT "comments".* FROM "comments" WHERE "comments"."id" = ? LIMIT 1[0m  [["id", "1"]]
  Rendered comments/show.html.erb within layouts/application (1.4ms)
Completed 200 OK in 11ms (Views: 8.3ms | ActiveRecord: 0.3ms)


Started GET "/assets/comments.css?body=1" for 127.0.0.1 at 2014-04-06 11:20:03 -0700


Started GET "/assets/scaffolds.css?body=1" for 127.0.0.1 at 2014-04-06 11:20:03 -0700


Started GET "/assets/posts.css?body=1" for 127.0.0.1 at 2014-04-06 11:20:03 -0700


Started GET "/assets/comments.js?body=1" for 127.0.0.1 at 2014-04-06 11:20:03 -0700


Started GET "/assets/posts.js?body=1" for 127.0.0.1 at 2014-04-06 11:20:03 -0700


Started GET "/assets/application.js?body=1" for 127.0.0.1 at 2014-04-06 11:20:03 -0700


Started GET "/assets/application.css?body=1" for 127.0.0.1 at 2014-04-06 11:20:03 -0700
  [1m[36mPost Load (10.3ms)[0m  [1mSELECT "posts".* FROM "posts"[0m
  [1m[35mComment Load (43.2ms)[0m  SELECT "comments".* FROM "comments" WHERE "comments"."post_id" = ?  [["post_id", 1]]
  [1m[36mComment Load (38.2ms)[0m  [1mSELECT "comments".* FROM "comments"[0m


Started GET "/" for 127.0.0.1 at 2014-04-13 10:46:18 -0700
  [1m[36mActiveRecord::SchemaMigration Load (1.2ms)[0m  [1mSELECT "schema_migrations".* FROM "schema_migrations"[0m
Processing by Rails::WelcomeController#index as HTML
  Rendered /Library/Ruby/Gems/2.0.0/gems/railties-4.0.4/lib/rails/templates/rails/welcome/index.html.erb (2.5ms)
Completed 200 OK in 83ms (Views: 34.3ms | ActiveRecord: 0.0ms)


Started GET "/post" for 127.0.0.1 at 2014-04-13 10:46:39 -0700

ActionController::RoutingError (No route matches [GET] "/post"):
  actionpack (4.0.4) lib/action_dispatch/middleware/debug_exceptions.rb:21:in `call'
  actionpack (4.0.4) lib/action_dispatch/middleware/show_exceptions.rb:30:in `call'
  railties (4.0.4) lib/rails/rack/logger.rb:38:in `call_app'
  railties (4.0.4) lib/rails/rack/logger.rb:20:in `block in call'
  activesupport (4.0.4) lib/active_support/tagged_logging.rb:68:in `block in tagged'
  activesupport (4.0.4) lib/active_support/tagged_logging.rb:26:in `tagged'
  activesupport (4.0.4) lib/active_support/tagged_logging.rb:68:in `tagged'
  railties (4.0.4) lib/rails/rack/logger.rb:20:in `call'
  actionpack (4.0.4) lib/action_dispatch/middleware/request_id.rb:21:in `call'
  rack (1.5.2) lib/rack/methodoverride.rb:21:in `call'
  rack (1.5.2) lib/rack/runtime.rb:17:in `call'
  activesupport (4.0.4) lib/active_support/cache/strategy/local_cache.rb:83:in `call'
  rack (1.5.2) lib/rack/lock.rb:17:in `call'
  actionpack (4.0.4) lib/action_dispatch/middleware/static.rb:64:in `call'
  rack (1.5.2) lib/rack/sendfile.rb:112:in `call'
  railties (4.0.4) lib/rails/engine.rb:511:in `call'
  railties (4.0.4) lib/rails/application.rb:97:in `call'
  rack (1.5.2) lib/rack/lock.rb:17:in `call'
  rack (1.5.2) lib/rack/content_length.rb:14:in `call'
  rack (1.5.2) lib/rack/handler/webrick.rb:60:in `service'
  /System/Library/Frameworks/Ruby.framework/Versions/2.0/usr/lib/ruby/2.0.0/webrick/httpserver.rb:138:in `service'
  /System/Library/Frameworks/Ruby.framework/Versions/2.0/usr/lib/ruby/2.0.0/webrick/httpserver.rb:94:in `run'
  /System/Library/Frameworks/Ruby.framework/Versions/2.0/usr/lib/ruby/2.0.0/webrick/server.rb:295:in `block in start_thread'


  Rendered /Library/Ruby/Gems/2.0.0/gems/actionpack-4.0.4/lib/action_dispatch/middleware/templates/rescues/_trace.erb (1.5ms)
  Rendered /Library/Ruby/Gems/2.0.0/gems/actionpack-4.0.4/lib/action_dispatch/middleware/templates/routes/_route.html.erb (3.2ms)
  Rendered /Library/Ruby/Gems/2.0.0/gems/actionpack-4.0.4/lib/action_dispatch/middleware/templates/routes/_table.html.erb (68.1ms)
  Rendered /Library/Ruby/Gems/2.0.0/gems/actionpack-4.0.4/lib/action_dispatch/middleware/templates/rescues/routing_error.erb within rescues/layout (137.7ms)


Started GET "/posts" for 127.0.0.1 at 2014-04-13 10:46:47 -0700
Processing by PostsController#index as HTML
Completed 500 Internal Server Error in 34ms

SyntaxError (/Users/claytonxc/blog/app/models/post.rb:2: syntax error, unexpected tSYMBEG, expecting keyword_do or '{' or '('
  has_many :comments, dependent :destroy
                                 ^):
  app/controllers/posts_controller.rb:7:in `index'


  Rendered /Library/Ruby/Gems/2.0.0/gems/actionpack-4.0.4/lib/action_dispatch/middleware/templates/rescues/_source.erb (1.0ms)
  Rendered /Library/Ruby/Gems/2.0.0/gems/actionpack-4.0.4/lib/action_dispatch/middleware/templates/rescues/_trace.erb (1.7ms)
  Rendered /Library/Ruby/Gems/2.0.0/gems/actionpack-4.0.4/lib/action_dispatch/middleware/templates/rescues/_request_and_response.erb (1.4ms)
  Rendered /Library/Ruby/Gems/2.0.0/gems/actionpack-4.0.4/lib/action_dispatch/middleware/templates/rescues/diagnostics.erb within rescues/layout (26.1ms)


Started GET "/posts/" for 127.0.0.1 at 2014-04-13 10:46:57 -0700
Processing by PostsController#index as HTML
Completed 500 Internal Server Error in 3ms

SyntaxError (/Users/claytonxc/blog/app/models/post.rb:2: syntax error, unexpected tSYMBEG, expecting keyword_do or '{' or '('
  has_many :comments, dependent :destroy
                                 ^):
  app/controllers/posts_controller.rb:7:in `index'


  Rendered /Library/Ruby/Gems/2.0.0/gems/actionpack-4.0.4/lib/action_dispatch/middleware/templates/rescues/_source.erb (1.0ms)
  Rendered /Library/Ruby/Gems/2.0.0/gems/actionpack-4.0.4/lib/action_dispatch/middleware/templates/rescues/_trace.erb (1.7ms)
  Rendered /Library/Ruby/Gems/2.0.0/gems/actionpack-4.0.4/lib/action_dispatch/middleware/templates/rescues/_request_and_response.erb (1.4ms)
  Rendered /Library/Ruby/Gems/2.0.0/gems/actionpack-4.0.4/lib/action_dispatch/middleware/templates/rescues/diagnostics.erb within rescues/layout (25.3ms)


Started GET "/" for 127.0.0.1 at 2014-04-13 10:47:45 -0700
Processing by Rails::WelcomeController#index as HTML
  Rendered /Library/Ruby/Gems/2.0.0/gems/railties-4.0.4/lib/rails/templates/rails/welcome/index.html.erb (0.1ms)
Completed 200 OK in 4ms (Views: 3.2ms | ActiveRecord: 0.0ms)


Started GET "/posts" for 127.0.0.1 at 2014-04-13 10:47:52 -0700
Processing by PostsController#index as HTML
Completed 500 Internal Server Error in 2ms

SyntaxError (/Users/claytonxc/blog/app/models/post.rb:2: syntax error, unexpected tSYMBEG, expecting keyword_do or '{' or '('
  has_many :comments, dependent :destroy
                                 ^):
  app/controllers/posts_controller.rb:7:in `index'


  Rendered /Library/Ruby/Gems/2.0.0/gems/actionpack-4.0.4/lib/action_dispatch/middleware/templates/rescues/_source.erb (1.1ms)
  Rendered /Library/Ruby/Gems/2.0.0/gems/actionpack-4.0.4/lib/action_dispatch/middleware/templates/rescues/_trace.erb (1.7ms)
  Rendered /Library/Ruby/Gems/2.0.0/gems/actionpack-4.0.4/lib/action_dispatch/middleware/templates/rescues/_request_and_response.erb (1.7ms)
  Rendered /Library/Ruby/Gems/2.0.0/gems/actionpack-4.0.4/lib/action_dispatch/middleware/templates/rescues/diagnostics.erb within rescues/layout (26.3ms)


Started GET "/post/" for 127.0.0.1 at 2014-04-13 10:48:08 -0700

ActionController::RoutingError (No route matches [GET] "/post"):
  actionpack (4.0.4) lib/action_dispatch/middleware/debug_exceptions.rb:21:in `call'
  actionpack (4.0.4) lib/action_dispatch/middleware/show_exceptions.rb:30:in `call'
  railties (4.0.4) lib/rails/rack/logger.rb:38:in `call_app'
  railties (4.0.4) lib/rails/rack/logger.rb:20:in `block in call'
  activesupport (4.0.4) lib/active_support/tagged_logging.rb:68:in `block in tagged'
  activesupport (4.0.4) lib/active_support/tagged_logging.rb:26:in `tagged'
  activesupport (4.0.4) lib/active_support/tagged_logging.rb:68:in `tagged'
  railties (4.0.4) lib/rails/rack/logger.rb:20:in `call'
  actionpack (4.0.4) lib/action_dispatch/middleware/request_id.rb:21:in `call'
  rack (1.5.2) lib/rack/methodoverride.rb:21:in `call'
  rack (1.5.2) lib/rack/runtime.rb:17:in `call'
  activesupport (4.0.4) lib/active_support/cache/strategy/local_cache.rb:83:in `call'
  rack (1.5.2) lib/rack/lock.rb:17:in `call'
  actionpack (4.0.4) lib/action_dispatch/middleware/static.rb:64:in `call'
  rack (1.5.2) lib/rack/sendfile.rb:112:in `call'
  railties (4.0.4) lib/rails/engine.rb:511:in `call'
  railties (4.0.4) lib/rails/application.rb:97:in `call'
  rack (1.5.2) lib/rack/lock.rb:17:in `call'
  rack (1.5.2) lib/rack/content_length.rb:14:in `call'
  rack (1.5.2) lib/rack/handler/webrick.rb:60:in `service'
  /System/Library/Frameworks/Ruby.framework/Versions/2.0/usr/lib/ruby/2.0.0/webrick/httpserver.rb:138:in `service'
  /System/Library/Frameworks/Ruby.framework/Versions/2.0/usr/lib/ruby/2.0.0/webrick/httpserver.rb:94:in `run'
  /System/Library/Frameworks/Ruby.framework/Versions/2.0/usr/lib/ruby/2.0.0/webrick/server.rb:295:in `block in start_thread'


  Rendered /Library/Ruby/Gems/2.0.0/gems/actionpack-4.0.4/lib/action_dispatch/middleware/templates/rescues/_trace.erb (44.3ms)
  Rendered /Library/Ruby/Gems/2.0.0/gems/actionpack-4.0.4/lib/action_dispatch/middleware/templates/routes/_route.html.erb (3.3ms)
  Rendered /Library/Ruby/Gems/2.0.0/gems/actionpack-4.0.4/lib/action_dispatch/middleware/templates/routes/_table.html.erb (1.5ms)
  Rendered /Library/Ruby/Gems/2.0.0/gems/actionpack-4.0.4/lib/action_dispatch/middleware/templates/rescues/routing_error.erb within rescues/layout (76.2ms)


Started GET "/comments" for 127.0.0.1 at 2014-04-13 10:49:04 -0700
Processing by CommentsController#index as HTML
  [1m[35mComment Load (14.2ms)[0m  SELECT "comments".* FROM "comments"
  Rendered comments/index.html.erb within layouts/application (25.6ms)
Completed 200 OK in 467ms (Views: 392.0ms | ActiveRecord: 15.2ms)


Started GET "/assets/application.css?body=1" for 127.0.0.1 at 2014-04-13 10:49:05 -0700


Started GET "/assets/comments.css?body=1" for 127.0.0.1 at 2014-04-13 10:49:05 -0700


Started GET "/assets/jquery.js?body=1" for 127.0.0.1 at 2014-04-13 10:49:05 -0700


Started GET "/assets/posts.css?body=1" for 127.0.0.1 at 2014-04-13 10:49:05 -0700


Started GET "/assets/scaffolds.css?body=1" for 127.0.0.1 at 2014-04-13 10:49:05 -0700


Started GET "/assets/jquery_ujs.js?body=1" for 127.0.0.1 at 2014-04-13 10:49:05 -0700


Started GET "/assets/turbolinks.js?body=1" for 127.0.0.1 at 2014-04-13 10:49:05 -0700


Started GET "/assets/comments.js?body=1" for 127.0.0.1 at 2014-04-13 10:49:05 -0700


Started GET "/assets/posts.js?body=1" for 127.0.0.1 at 2014-04-13 10:49:05 -0700


Started GET "/assets/application.js?body=1" for 127.0.0.1 at 2014-04-13 10:49:05 -0700


Started GET "/posts/1/comments" for 127.0.0.1 at 2014-04-13 10:49:33 -0700
Processing by CommentsController#index as HTML
  Parameters: {"post_id"=>"1"}
  [1m[36mComment Load (0.2ms)[0m  [1mSELECT "comments".* FROM "comments"[0m
  Rendered comments/index.html.erb within layouts/application (2.1ms)
Completed 200 OK in 9ms (Views: 8.1ms | ActiveRecord: 0.2ms)
